[
    {
        "id" : 0,
        "name": "Суп",
        "category" : 0,
        "image" : "soup.jpg",         
        "description" : "Супец",
        "price": 4.5
    },

    {
        "id" : 1,
        "name": "Борщ",
        "category" : 0,
        "image" : "borsch.jpg", 
        "description" : "Борщ с пампушками",
        "price": 4
    },

    {
        "id" : 2,
        "name": "Стейк",
        "category" : 1,
        "image" : "steik.jpg", 
        "description" : "Мясцо",
        "price": 15
    },

    {
        "id" : 3,
        "name": "Картофель",
        "category" : 1,
        "image" : "kartoshka.jpg", 
        "description" : "Картоха",
        "price": 3.3
    },

    {
        "id" : 4,
        "name": "Вино",
        "category" : 2,
        "image" : "vino.jpg", 
        "description" : "Винчик",
        "price": 10
    }
    
]

